{
  "departement": 31,
  "bloc": [{
      "id": 1,
      "title": "Département de l'Hérault",
      "data": {
        "list": ["CA Montpellier Agglomération", "CA du Bassin de Thau", "CA Béziers Méditerranée"],
        "map": {
          "markers": [{
            "label": {
              "title": "Montpellier",
              "x": 157.682,
              "y": 190
            },
            "x": 180.8,
            "y": 140.8
          }, {
            "label": {
              "title": "Toulouse",
              "x": 130.52,
              "y": 160
            },
            "x": 160.8,
            "y": 120.8
          }]
        }
      }
    },
    {
      "id": 2,
      "map": {
        "lat": 40.74,
        "long": -74.18,
        "overlay": {
          "url": "https://www.atmo-occitanie.org/sites/default/files/geotiff/1_ATMO_OCCITANIE_wgs84_run20190528_O3_ech%2B0.png",
          "bounds": [{
            "lat": 40.712216,
            "long": -74.22655
          }, {
            "lat": 40.773941,
            "long": -74.12544
          }]
        }
      },
      "datas": [{
        "year": 2018,
        "data": [{
            "polluant": 1,
            "datas": [{
              "id": 1,
              "markers": [{
                "lat": 40.740,
                "long": -74.200
              }, {
                "lat": 40.741,
                "long": -74.201
              }, {
                "lat": 40.742,
                "long": -74.202
              }, {
                "lat": 40.753,
                "long": -74.183
              }]
            }, {
              "id": 2,
              "markers": [{
                "lat": 40.740,
                "long": -74.170
              }, {
                "lat": 40.741,
                "long": -74.171
              }, {
                "lat": 40.742,
                "long": -74.172
              }, {
                "lat": 40.743,
                "long": -74.173
              }, {
                "lat": 40.754,
                "long": -74.164
              }]
            }]
          },
          {
            "polluant": 2,
            "datas": [{
              "id": 1,
              "markers": [{
                "lat": 40.740,
                "long": -74.200
              }, {
                "lat": 40.741,
                "long": -74.201
              }, {
                "lat": 40.742,
                "long": -74.202
              }, {
                "lat": 40.753,
                "long": -74.183
              }]
            }, {
              "id": 2,
              "markers": [{
                "lat": 40.740,
                "long": -74.0
              }, {
                "lat": 40.741,
                "long": -74.120
              }, {
                "lat": 40.742,
                "long": -74.100
              }, {
                "lat": 40.743,
                "long": -74.180
              }, {
                "lat": 40.754,
                "long": -74.170
              }]
            }]
          }
        ]
      }, {
        "year": 2016,
        "data": [{
          "polluant": 1,
          "datas": [{
            "id": 1,
            "markers": [{
              "lat": 40.740,
              "long": -74.200
            }, {
              "lat": 40.741,
              "long": -74.201
            }, {
              "lat": 40.742,
              "long": -74.202
            }, {
              "lat": 40.753,
              "long": -74.183
            }]
          }, {
            "id": 2,
            "markers": [{
              "lat": 40.740,
              "long": -74.170
            }, {
              "lat": 40.741,
              "long": -74.171
            }, {
              "lat": 40.742,
              "long": -74.172
            }, {
              "lat": 40.743,
              "long": -74.173
            }, {
              "lat": 40.754,
              "long": -74.164
            }]
          }]
        }, {
          "polluant": 2,
          "datas": [{
            "id": 1,
            "markers": [{
              "lat": 40.740,
              "long": -74.200
            }, {
              "lat": 40.741,
              "long": -74.201
            }, {
              "lat": 40.742,
              "long": -74.202
            }, {
              "lat": 40.753,
              "long": -74.183
            }]
          }, {
            "id": 2,
            "markers": [{
              "lat": 40.740,
              "long": -74.170
            }, {
              "lat": 40.741,
              "long": -74.171
            }, {
              "lat": 40.742,
              "long": -74.172
            }, {
              "lat": 40.743,
              "long": -74.173
            }, {
              "lat": 40.754,
              "long": -74.164
            }]
          }]
        }]
      }]
    }, {
      "id": 3,
      "subBloc": [{
        "id": 1,
        "title": "Évolution annuelle des émissions de polluants dans l'air - Occitanie",
        "headers": [{
            "id": 1,
            "column": [{
              "label": "Moyenne en Occitanie",
              "id": 1,
              "number": 3
            }, {
              "id": 2,
              "number": 4
            }, {
              "id": 3,
              "number": 8.5
            }]
          }, {
            "id": 2,
            "column": [{
              "id": 1,
              "number": 3
            }, {
              "id": 2,
              "number": 4
            }, {
              "id": 3,
              "number": 3.1
            }]
          },
          {
            "id": 3,
            "column": [{
              "id": 1,
              "number": 13
            }, {
              "id": 2,
              "number": 13
            }, {
              "id": 3,
              "number": 0.7
            }]
          },
          {
            "id": 4,
            "column": [{
              "id": 1,
              "number": 6
            }, {
              "id": 2,
              "number": 6
            }, {
              "id": 3,
              "number": 2.1
            }]
          }
        ],
        "datas": [{
          "id": 1,
          "category": [{
              "year": 2015,
              "data": [{
                  "id": 1,
                  "number": 10000
                }, {
                  "id": 2,
                  "number": 1500
                }, {
                  "id": 3,
                  "number": 10000
                }, {
                  "id": 4,
                  "number": 6000
                },
                {
                  "id": 5,
                  "number": 3000
                }
              ]
            },
            {
              "year": 2014,
              "data": [{
                  "id": 1,
                  "number": 10000
                }, {
                  "id": 2,
                  "number": 1500
                }, {
                  "id": 3,
                  "number": 10000
                }, {
                  "id": 4,
                  "number": 2000
                },
                {
                  "id": 5,
                  "number": 3000
                }
              ]
            },
            {
              "year": 2013,
              "data": [{
                  "id": 1,
                  "number": 10000
                }, {
                  "id": 2,
                  "number": 1500
                }, {
                  "id": 3,
                  "number": 10000
                }, {
                  "id": 4,
                  "number": 8000
                },
                {
                  "id": 5,
                  "number": 3000
                }
              ]
            },
            {
              "year": 2012,
              "data": [{
                  "id": 1,
                  "number": 10000
                }, {
                  "id": 2,
                  "number": 1500
                }, {
                  "id": 3,
                  "number": 10000
                }, {
                  "id": 4,
                  "number": 5000
                },
                {
                  "id": 5,
                  "number": 3000
                }
              ]
            },
            {
              "year": 2011,
              "data": [{
                  "id": 1,
                  "number": 20000
                }, {
                  "id": 2,
                  "number": 1500
                }, {
                  "id": 3,
                  "number": 10000
                }, {
                  "id": 4,
                  "number": 5000
                },
                {
                  "id": 5,
                  "number": 3000
                }
              ]
            },
            {
              "year": 2010,
              "data": [{
                  "id": 1,
                  "number": 30000
                }, {
                  "id": 2,
                  "number": 1500
                }, {
                  "id": 3,
                  "number": 10000
                }, {
                  "id": 4,
                  "number": 5000
                },
                {
                  "id": 5,
                  "number": 3000
                }
              ]
            },
            {
              "year": 2009,
              "data": [{
                  "id": 1,
                  "number": 10000
                }, {
                  "id": 2,
                  "number": 1500
                }, {
                  "id": 3,
                  "number": 10000
                }, {
                  "id": 4,
                  "number": 5000
                },
                {
                  "id": 5,
                  "number": 3000
                }
              ]
            }, {
              "year": 2008,
              "data": [{
                  "id": 1,
                  "number": 40000
                }, {
                  "id": 2,
                  "number": 1500
                }, {
                  "id": 3,
                  "number": 10000
                }, {
                  "id": 4,
                  "number": 5000
                },
                {
                  "id": 5,
                  "number": 3000
                }
              ]
            }, {
              "year": 2007,
              "data": [{
                  "id": 1,
                  "number": 10000
                }, {
                  "id": 2,
                  "number": 1500
                }, {
                  "id": 3,
                  "number": 10000
                }, {
                  "id": 4,
                  "number": 5000
                },
                {
                  "id": 5,
                  "number": 3000
                }
              ]
            }, {
              "year": 2006,
              "data": [{
                  "id": 1,
                  "number": 10000
                }, {
                  "id": 2,
                  "number": 1500
                }, {
                  "id": 3,
                  "number": 10000
                }, {
                  "id": 4,
                  "number": 5000
                },
                {
                  "id": 5,
                  "number": 3000
                }
              ]
            }
          ]

        }, {
          "id": 2,
          "category": [{
              "year": 2015,
              "data": [{
                  "id": 1,
                  "number": 10000
                }, {
                  "id": 2,
                  "number": 1500
                }, {
                  "id": 3,
                  "number": 10000
                }, {
                  "id": 4,
                  "number": 5000
                },
                {
                  "id": 5,
                  "number": 3000
                }
              ]
            },
            {
              "year": 2014,
              "data": [{
                  "id": 1,
                  "number": 20000
                }, {
                  "id": 2,
                  "number": 1500
                }, {
                  "id": 3,
                  "number": 10000
                }, {
                  "id": 4,
                  "number": 5000
                },
                {
                  "id": 5,
                  "number": 3000
                }
              ]
            },
            {
              "year": 2012,
              "data": [{
                  "id": 1,
                  "number": 30000
                }, {
                  "id": 2,
                  "number": 1500
                }, {
                  "id": 3,
                  "number": 10000
                }, {
                  "id": 4,
                  "number": 5000
                },
                {
                  "id": 5,
                  "number": 3000
                }
              ]
            },
            {
              "year": 2011,
              "data": [{
                  "id": 1,
                  "number": 10000
                }, {
                  "id": 2,
                  "number": 1500
                }, {
                  "id": 3,
                  "number": 10000
                }, {
                  "id": 4,
                  "number": 5000
                },
                {
                  "id": 5,
                  "number": 3000
                }
              ]
            },
            {
              "year": 2010,
              "data": [{
                  "id": 1,
                  "number": 10000
                }, {
                  "id": 2,
                  "number": 1500
                }, {
                  "id": 3,
                  "number": 10000
                }, {
                  "id": 4,
                  "number": 5000
                },
                {
                  "id": 5,
                  "number": 3000
                }
              ]
            },
            {
              "year": 2009,
              "data": [{
                  "id": 1,
                  "number": 5000
                }, {
                  "id": 2,
                  "number": 1500
                }, {
                  "id": 3,
                  "number": 8000
                }, {
                  "id": 4,
                  "number": 3000
                },
                {
                  "id": 5,
                  "number": 500
                }
              ]
            }, {
              "year": 2008,
              "data": [{
                  "id": 1,
                  "number": 10000
                }, {
                  "id": 2,
                  "number": 1500
                }, {
                  "id": 3,
                  "number": 10000
                }, {
                  "id": 4,
                  "number": 5000
                },
                {
                  "id": 5,
                  "number": 3000
                }
              ]
            }, {
              "year": 2007,
              "data": [{
                  "id": 1,
                  "number": 10000
                }, {
                  "id": 2,
                  "number": 1500
                }, {
                  "id": 3,
                  "number": 10000
                }, {
                  "id": 4,
                  "number": 5000
                },
                {
                  "id": 5,
                  "number": 3000
                }
              ]
            }, {
              "year": 2006,
              "data": [{
                  "id": 1,
                  "number": 10000
                }, {
                  "id": 2,
                  "number": 1500
                }, {
                  "id": 3,
                  "number": 10000
                }, {
                  "id": 4,
                  "number": 5000
                },
                {
                  "id": 5,
                  "number": 3000
                }
              ]
            }
          ]
        }]
      }, {
        "id": 2,
        "datas": [{
            "id": 1,
            "data": [{
                "id": 1,
                "number": 24.3
              }, {
                "id": 2,
                "number": 0.2
              }, {
                "id": 3,
                "number": 27.2
              }, {
                "id": 4,
                "number": 20
              },
              {
                "id": 5,
                "number": 28.4
              }
            ],
            "details": {
              "max": 28.4,
              "description": "Le secteur agricole ...",
              "id": 5
            }
          },
          {
            "id": 2,
            "data": [{
                "id": 1,
                "number": 24.8
              }, {
                "id": 2,
                "number": 0.3
              }, {
                "id": 3,
                "number": 41.1
              }, {
                "id": 4,
                "number": 17.8
              },
              {
                "id": 5,
                "number": 16
              }
            ],
            "details": {
              "max": 41.1,
              "description": "Le secteur résidentiel ...",
              "id": 3
            }
          },
          {
            "id": 3,
            "data": [{
                "id": 1,
                "number": 70.1
              }, {
                "id": 2,
                "number": 2.1
              }, {
                "id": 3,
                "number": 6
              }, {
                "id": 4,
                "number": 9.2
              },
              {
                "id": 5,
                "number": 12.6
              }
            ],
            "details": {
              "max": 70.1,
              "description": "Le secteur des transports ...",
              "id": 1
            }
          },
          {
            "id": 4,
            "data": [{
                "id": 1,
                "number": 41.4
              }, {
                "id": 2,
                "number": 4.1
              }, {
                "id": 3,
                "number": 18.3
              }, {
                "id": 4,
                "number": 16.9
              },
              {
                "id": 5,
                "number": 19.4
              }
            ],
            "details": {
              "max": 41.4,
              "description": "Le secteur des transports ...",
              "id": 1
            }
          }
        ]
      }]
    }, {
      "id": 4,
      "subBloc": [{
          "id": 1,
          "datas": [{
              "year": 2015,
              "data": [{
                  "id": 1,
                  "headers": ["PM10", "PM2.5", "NO2", "O3", "SO2", "B(a)P", "métaux"],
                  "rows": [{
                      "label": "PPA1-Montpellier",
                      "columns": [0, 4, 0, 1, 0, 4, 4]
                    },
                    {
                      "label": "PPA2-Perpignan",
                      "columns": [0, 4, 0, 1, 0, 4, 4]
                    },
                    {
                      "label": "PPA3-Toulouse",
                      "columns": [0, 4, 0, 1, 0, 4, 4]
                    },
                    {
                      "label": "(09) Ariège",
                      "columns": [0, 4, 0, 1, 0, 4, 4]
                    },
                    {
                      "label": "(11) Aude",
                      "columns": [0, 4, 0, 1, 0, 4, 4]
                    },
                    {
                      "label": "(12) Aveyron",
                      "columns": [0, 4, 0, 1, 0, 4, 4]
                    }
                  ]
                },
                {
                  "id": 2,
                  "headers": ["PM10", "PM2.5", "NO2", "O3", "SO2", "B(a)P"],
                  "rows": [{
                      "label": "PPA1-Montpellier",
                      "columns": [0, 0, 0, 0, 4, 4]
                    },
                    {
                      "label": "PPA2-Perpignan",
                      "columns": [0, 0, 0, 0, 4, 4]
                    },
                    {
                      "label": "PPA3-Toulouse",
                      "columns": [0, 0, 0, 0, 4, 4]
                    },
                    {
                      "label": "(09) Ariège",
                      "columns": [0, 2, 0, 0, 4, 4]
                    },
                    {
                      "label": "(11) Aude",
                      "columns": [0, 4, 0, 1, 0, 4]
                    },
                    {
                      "label": "(12) Aveyron",
                      "columns": [0, 4, 0, 1, 0, 4]
                    }
                  ]
                }
              ]
            },
            {
              "year": 2018,
              "data": [{
                  "id": 1,
                  "headers": ["PM10", "PM2.5", "NO2", "O3", "SO2", "B(a)P", "métaux"],
                  "rows": [{
                      "label": "PPA1-Montpellier",
                      "columns": [0, 4, 0, 1, 0, 4, 4]
                    },
                    {
                      "label": "PPA2-Perpignan",
                      "columns": [0, 4, 0, 1, 0, 4, 4]
                    },
                    {
                      "label": "PPA3-Toulouse",
                      "columns": [0, 4, 0, 1, 0, 4, 4]
                    },
                    {
                      "label": "(09) Ariège",
                      "columns": [0, 4, 0, 1, 0, 4, 4]
                    },
                    {
                      "label": "(11) Aude",
                      "columns": [0, 4, 0, 1, 0, 4, 4]
                    },
                    {
                      "label": "(12) Aveyron",
                      "columns": [0, 4, 0, 1, 0, 4, 4]
                    }
                  ]
                },
                {
                  "id": 2,
                  "headers": ["PM10", "PM2.5", "NO2", "O3", "SO2", "B(a)P"],
                  "rows": [{
                      "label": "PPA1-Montpellier",
                      "columns": [0, 0, 0, 0, 4, 4]
                    },
                    {
                      "label": "PPA2-Perpignan",
                      "columns": [0, 0, 0, 0, 4, 4]
                    },
                    {
                      "label": "PPA3-Toulouse",
                      "columns": [0, 0, 0, 0, 4, 4]
                    },
                    {
                      "label": "(09) Ariège",
                      "columns": [0, 2, 0, 0, 4, 4]
                    },
                    {
                      "label": "(11) Aude",
                      "columns": [0, 4, 0, 1, 0, 4]
                    },
                    {
                      "label": "(12) Aveyron",
                      "columns": [0, 4, 0, 1, 0, 4]
                    }
                  ]
                }
              ]
            }
          ]
        },
        {
        "id": 2,
        "datas": [{
          "polluant": 1,
          "datas": [{
            "id": 1,
            "data": [{
              "id": 1,
              "name": "Toulouse",
              "data": [
                0,
                15,
                28,
                30,
                17,
                40,
                35,
                25
              ]},
              {
                "id": 2,
                "name": "Montpellier",
                "data": [
                  34,
                  28,
                  25,
                  19,
                  22,
                  39,
                  40,
                  48
                ]},
              {
              "id": 3,
              "name": "Perpignan",
              "data": [
                11,
                25,
                12,
                18,
                15,
                28,
                24,
                39
              ]},
              {
              "id": 4,
              "name": "Nîmes",
              "data": [
                null,
                null,
                15,
                13,
                30,
                29,
                32,
                0
              ]}
            ]},
            {
            "id": 2,
            "data": [{
              "id": 1,
              "name": "Toulouse",
              "data": [
                0,
                20,
                25,
                28,
                30,
                35,
                20,
                25
              ]},
              {
                "id": 2,
                "name": "Montpellier",
                "data": [
                  40,
                  35,
                  20,
                  15,
                  25,
                  40,
                  45,
                  48
              ]},
              {
                "id": 3,
                "name": "Perpignan",
                "data": [
                  10,
                  12,
                  14,
                  14,
                  18,
                  25,
                  28,
                  35
              ]},
              {
                "id": 4,
                "name": "Nîmes",
                "data": [
                  null,
                  null,
                  10,
                  17,
                  35,
                  38,
                  20,
                  0
              ]}
            ]}
          ]},
          {
            "polluant": 2,
            "datas": [
              {
                "id": 1,
                "data": [
                  {
                    "id": 1,
                    "name": "Toulouse",
                    "data": [
                      3,
                      18,
                      30,
                      23,
                      28,
                      37,
                      20,
                      25
                    ]
                  },
                  {
                    "id": 2,
                    "name": "Montpellier",
                    "data": [
                      40,
                      35,
                      20,
                      15,
                      25,
                      40,
                      45,
                      48
                    ]
                  },
                  {
                    "id": 3,
                    "name": "Perpignan",
                    "data": [
                      10,
                      12,
                      14,
                      14,
                      18,
                      25,
                      28,
                      35
                    ]
                  },
                  {
                    "id": 4,
                    "name": "Nîmes",
                    "data": [
                      null,
                      null,
                      10,
                      17,
                      35,
                      38,
                      20,
                      0
                    ]
                  }
                ]
              },
              {
              "id": 2,
              "data": [{
                "id": 1,
                "name": "Toulouse",
                "data": [
                  0,
                  20,
                  25,
                  28,
                  30,
                  35,
                  20,
                  25
                ]},
                {
                "id": 2,
                "name": "Montpellier",
                "data": [
                  40,
                  35,
                  20,
                  15,
                  25,
                  40,
                  45,
                  48
                ]},
                {
                  "id": 3,
                  "name": "Perpignan",
                  "data": [
                    10,
                    12,
                    14,
                    14,
                    18,
                    25,
                    28,
                    35
                ]},
                {
                  "id": 4,
                  "name": "Nîmes",
                  "data": [
                    null,
                    null,
                    10,
                    17,
                    35,
                    38,
                    20,
                    0
                ]}
              ]}
          ]},
          {
            "polluant": 3,
            "datas": [
              {
                "id": 1,
                "data": [
                  {
                    "id": 1,
                    "name": "Toulouse",
                    "data": [
                      3,
                      18,
                      30,
                      23,
                      28,
                      37,
                      20,
                      25
                    ]
                  },
                  {
                    "id": 2,
                    "name": "Montpellier",
                    "data": [
                      40,
                      35,
                      20,
                      15,
                      25,
                      40,
                      45,
                      48
                    ]
                  },
                  {
                    "id": 3,
                    "name": "Perpignan",
                    "data": [
                      10,
                      12,
                      14,
                      14,
                      18,
                      25,
                      28,
                      35
                    ]
                  },
                  {
                    "id": 4,
                    "name": "Nîmes",
                    "data": [
                      null,
                      null,
                      10,
                      17,
                      35,
                      38,
                      20,
                      0
                    ]
                  }
                ]
              },
              {
                "id": 2,
                "data": [
                  {
                    "id": 1,
                    "name": "Toulouse",
                    "data": [
                      0,
                      20,
                      25,
                      28,
                      30,
                      35,
                      20,
                      25
                    ]
                  },
                  {
                    "id": 2,
                    "name": "Montpellier",
                    "data": [
                      40,
                      35,
                      20,
                      15,
                      25,
                      40,
                      45,
                      48
                    ]
                  },
                  {
                    "id": 3,
                    "name": "Perpignan",
                    "data": [
                      10,
                      12,
                      14,
                      14,
                      18,
                      25,
                      28,
                      35
                    ]
                  },
                  {
                    "id": 4,
                    "name": "Nîmes",
                    "data": [
                      null,
                      null,
                      10,
                      17,
                      35,
                      38,
                      20,
                      0
                    ]
                  }
                ]
              }
            ]
          },
          {
            "polluant": 4,
            "datas": [
              {
                "id": 1,
                "data": [
                  {
                    "id": 1,
                    "name": "Toulouse",
                    "data": [
                      3,
                      18,
                      30,
                      23,
                      28,
                      37,
                      20,
                      25
                    ]
                  },
                  {
                    "id": 2,
                    "name": "Montpellier",
                    "data": [
                      40,
                      35,
                      20,
                      15,
                      25,
                      40,
                      45,
                      48
                    ]
                  },
                  {
                    "id": 3,
                    "name": "Perpignan",
                    "data": [
                      10,
                      12,
                      14,
                      14,
                      18,
                      25,
                      28,
                      35
                    ]
                  },
                  {
                    "id": 4,
                    "name": "Nîmes",
                    "data": [
                      null,
                      null,
                      10,
                      17,
                      35,
                      38,
                      20,
                      0
                    ]
                  }
                ]
              },
              {
                "id": 2,
                "data": [
                  {
                    "id": 1,
                    "name": "Toulouse",
                    "data": [
                      0,
                      20,
                      25,
                      28,
                      30,
                      35,
                      20,
                      25
                    ]
                  },
                  {
                    "id": 2,
                    "name": "Montpellier",
                    "data": [
                      40,
                      35,
                      20,
                      15,
                      25,
                      40,
                      45,
                      48
                    ]
                  },
                  {
                    "id": 3,
                    "name": "Perpignan",
                    "data": [
                      10,
                      12,
                      14,
                      14,
                      18,
                      25,
                      28,
                      35
                    ]
                  },
                  {
                    "id": 4,
                    "name": "Nîmes",
                    "data": [
                      null,
                      null,
                      10,
                      17,
                      35,
                      38,
                      20,
                      0
                    ]
                  }
                ]
              }
            ]
          },
          {
            "polluant": 5,
            "datas": [
              {
                "id": 1,
                "data": [
                  {
                    "id": 1,
                    "name": "Toulouse",
                    "data": [
                      3,
                      18,
                      30,
                      23,
                      28,
                      37,
                      20,
                      25
                    ]
                  },
                  {
                    "id": 2,
                    "name": "Montpellier",
                    "data": [
                      40,
                      35,
                      20,
                      15,
                      25,
                      40,
                      45,
                      48
                    ]
                  },
                  {
                    "id": 3,
                    "name": "Perpignan",
                    "data": [
                      10,
                      12,
                      14,
                      14,
                      18,
                      25,
                      28,
                      35
                    ]
                  },
                  {
                    "id": 4,
                    "name": "Nîmes",
                    "data": [
                      null,
                      null,
                      10,
                      17,
                      35,
                      38,
                      20,
                      0
                    ]
                  }
                ]
              },
              {
                "id": 2,
                "data": [
                  {
                    "id": 1,
                    "name": "Toulouse",
                    "data": [
                      0,
                      20,
                      25,
                      28,
                      30,
                      35,
                      20,
                      25
                    ]
                  },
                  {
                    "id": 2,
                    "name": "Montpellier",
                    "data": [
                      40,
                      35,
                      20,
                      15,
                      25,
                      40,
                      45,
                      48
                    ]
                  },
                  {
                    "id": 3,
                    "name": "Perpignan",
                    "data": [
                      10,
                      12,
                      14,
                      14,
                      18,
                      25,
                      28,
                      35
                    ]
                  },
                  {
                    "id": 4,
                    "name": "Nîmes",
                    "data": [
                      null,
                      null,
                      10,
                      17,
                      35,
                      38,
                      20,
                      0
                    ]
                  }
                ]
              }
            ]
          },
          {
            "polluant": 6,
            "datas": [
              {
                "id": 1,
                "data": [
                  {
                    "id": 1,
                    "name": "Toulouse",
                    "data": [
                      3,
                      18,
                      30,
                      23,
                      28,
                      37,
                      20,
                      25
                    ]
                  },
                  {
                    "id": 2,
                    "name": "Montpellier",
                    "data": [
                      40,
                      35,
                      20,
                      15,
                      25,
                      40,
                      45,
                      48
                    ]
                  },
                  {
                    "id": 3,
                    "name": "Perpignan",
                    "data": [
                      10,
                      12,
                      14,
                      14,
                      18,
                      25,
                      28,
                      35
                    ]
                  },
                  {
                    "id": 4,
                    "name": "Nîmes",
                    "data": [
                      null,
                      null,
                      10,
                      17,
                      35,
                      38,
                      20,
                      0
                    ]
                  }
                ]
              },
              {
                "id": 2,
                "data": [
                  {
                    "id": 1,
                    "name": "Toulouse",
                    "data": [
                      0,
                      20,
                      25,
                      28,
                      30,
                      35,
                      20,
                      25
                    ]
                  },
                  {
                    "id": 2,
                    "name": "Montpellier",
                    "data": [
                      40,
                      35,
                      20,
                      15,
                      25,
                      40,
                      45,
                      48
                    ]
                  },
                  {
                    "id": 3,
                    "name": "Perpignan",
                    "data": [
                      10,
                      12,
                      14,
                      14,
                      18,
                      25,
                      28,
                      35
                    ]
                  },
                  {
                    "id": 4,
                    "name": "Nîmes",
                    "data": [
                      null,
                      null,
                      10,
                      17,
                      35,
                      38,
                      20,
                      0
                    ]
                  }
                ]
              }
            ]
          }
        ]
        }, {
          "id": 3,
          "map": {
            "lat": 40.74,
            "long": -74.18,
            "overlay": {
              "url": "https://www.atmo-occitanie.org/sites/default/files/geotiff/1_ATMO_OCCITANIE_wgs84_run20190528_O3_ech%2B0.png",
              "bounds": [{
                "lat": 40.712216,
                "long": -74.22655
              }, {
                "lat": 40.773941,
                "long": -74.12544
              }]
            }
          },
          "datas": [{
            "year": 2018,
            "data": [{
                "polluant": 1,
                "datas": [{
                  "id": 1,
                  "markers": [{
                    "lat": 40.740,
                    "long": -74.200
                  }, {
                    "lat": 40.741,
                    "long": -74.201
                  }, {
                    "lat": 40.742,
                    "long": -74.202
                  }, {
                    "lat": 40.753,
                    "long": -74.183
                  }]
                }, {
                  "id": 2,
                  "markers": [{
                    "lat": 40.740,
                    "long": -74.170
                  }, {
                    "lat": 40.741,
                    "long": -74.171
                  }, {
                    "lat": 40.742,
                    "long": -74.172
                  }, {
                    "lat": 40.743,
                    "long": -74.173
                  }, {
                    "lat": 40.754,
                    "long": -74.164
                  }]
                }]
              }, {
                "polluant": 2,
                "datas": [{
                  "id": 1,
                  "markers": [{
                    "lat": 40.740,
                    "long": -74.200
                  }, {
                    "lat": 40.741,
                    "long": -74.201
                  }, {
                    "lat": 40.742,
                    "long": -74.202
                  }, {
                    "lat": 40.753,
                    "long": -74.183
                  }]
                }, {
                  "id": 2,
                  "markers": [{
                    "lat": 40.740,
                    "long": -74.170
                  }, {
                    "lat": 40.741,
                    "long": -74.171
                  }, {
                    "lat": 40.742,
                    "long": -74.172
                  }, {
                    "lat": 40.743,
                    "long": -74.173
                  }, {
                    "lat": 40.754,
                    "long": -74.164
                  }]
                }]
              }
            ]
          }, {
            "year": 2017,
            "data": [{
              "id": 1,
              "markers": [{
                "lat": 40.740,
                "long": -74.200
              }, {
                "lat": 40.741,
                "long": -74.201
              }, {
                "lat": 40.742,
                "long": -74.202
              }, {
                "lat": 40.753,
                "long": -74.183
              }]
            }, {
              "id": 2,
              "markers": [{
                "lat": 40.740,
                "long": -74.170
              }, {
                "lat": 40.741,
                "long": -74.171
              }, {
                "lat": 40.742,
                "long": -74.172
              }, {
                "lat": 40.743,
                "long": -74.173
              }, {
                "lat": 40.754,
                "long": -74.164
              }]
            }]

          }]
        },
        {
          "id": 4,
          "datas": [{
              "id": 1,
              "limit": 40,
              "data": [{
                "id": 1,
                "name": "Montpellier - Montpellier Chaptal",
                "number": 20
              }, {
                "id": 2,
                "name": "Montpellier - Montpellier Près d'Arènes",
                "number": 40
              }, {
                "id": 3,
                "name": "Montpellier - Montpellier Traffic",
                "number": 70
              }, {
                "id": 4,
                "name": "Montpellier - Montpellier Saint Denis",
                "number": 10
              }]
            },
            {
              "id": 2,
              "limit": 20,
              "data": [{
                "id": 1,
                "name": "Montpellier - Montpellier Chaptal",
                "number": 20
              }, {
                "id": 2,
                "name": "Montpellier - Montpellier Près d'Arènes",
                "number": 40
              }, {
                "id": 3,
                "name": "Montpellier - Montpellier Traffic",
                "number": 70
              }, {
                "id": 4,
                "name": "Montpellier - Montpellier Saint Denis",
                "number": 10
              }]
            }
          ]
        }
      ]
    }, {
      "id": 5,
      "text": "Entre 3000 et 4000 habitants sont exposés à la pollution",
      "map": {
        "lat": 40.74,
        "long": -74.18,
        "overlay": {
          "bounds": [{
            "lat": 40.712216,
            "long": -74.22655
          }, {
            "lat": 40.773941,
            "long": -74.12544
          }]
        }
      },
      "datas": [{
        "year": 2018,
        "data": [{
          "id": 1,
          "overlay": {
            "url": "https://www.atmo-occitanie.org/sites/default/files/geotiff/1_ATMO_OCCITANIE_wgs84_run20190528_O3_ech%2B0.png"
          }
        }, {
          "id": 2,
          "overlay": {
            "url": "https://www.atmo-occitanie.org/sites/default/files/geotiff/1_ATMO_OCCITANIE_wgs84_run20190528_O3_ech%2B0.png"
          }
        }, {
          "id": 3,
          "overlay": {
            "url": "https://www.atmo-occitanie.org/sites/default/files/geotiff/1_ATMO_OCCITANIE_wgs84_run20190528_O3_ech%2B0.png"
          }
        }, {
          "id": 4,
          "overlay": {
            "url": "https://www.atmo-occitanie.org/sites/default/files/geotiff/1_ATMO_OCCITANIE_wgs84_run20190528_O3_ech%2B0.png"
          }
        }, {
          "id": 5,
          "overlay": {
            "url": "https://www.atmo-occitanie.org/sites/default/files/geotiff/1_ATMO_OCCITANIE_wgs84_run20190528_O3_ech%2B0.png"
          }
        }, {
          "id": 6,
          "overlay": {
            "url": "https://www.atmo-occitanie.org/sites/default/files/geotiff/1_ATMO_OCCITANIE_wgs84_run20190528_O3_ech%2B0.png"
          }
        }]

      }, {
        "year": 2016,
        "data": [{
          "id": 1,
          "overlay": {
            "url": "https://www.atmo-occitanie.org/sites/default/files/geotiff/1_ATMO_OCCITANIE_wgs84_run20190528_O3_ech%2B0.png"
          }
        }, {
          "id": 2,
          "overlay": {
            "url": "https://www.atmo-occitanie.org/sites/default/files/geotiff/1_ATMO_OCCITANIE_wgs84_run20190528_O3_ech%2B0.png"
          }
        }]
      }]
    }, {
      "id": 6,
      "map": {
        "lat": 43.4074164,
        "long": 1.937391,        
        "overlay": {
          "bounds": [{
            "lat": 41.9626484,
            "long": -0.483209          
          }, {
            "lat": 45.1723484,
            "long": 4.774511
          }]
        }
      },
      "datas": [{
        "year": 2018,
        "data": [{
          "id": 1,
          "overlay": {
            "url": "images/overlays/ATMO_map_2.png"
          }
        }, {
          "id": 2,
          "overlay": {
            "url": "images/overlays/ATMO_map_0.png"
          }
        }, {
          "id": 3,
          "overlay": {
            "url": "images/overlays/ATMO_map_1.png"
          }
        }, {
          "id": 4,
          "overlay": {
            "url": "images/overlays/ATMO_map_2.png"
          }
        }, {
          "id": 5,
          "overlay": {
            "url": "images/overlays/ATMO_map_1.png"
          }
        }, {
          "id": 6,
          "overlay": {
            "url": "images/overlays/ATMO_map_2.png"
          }
        }]

      }, {
        "year": 2016,
        "data": [{
          "id": 1,
          "overlay": {
            "url": "images/overlays/ATMO_map_1.png"
          }
        }, {
          "id": 2,
          "overlay": {
            "url": "images/overlays/ATMO_map_0.png"
          }
        }, {
          "id": 3,
          "overlay": {
            "url": "images/overlays/ATMO_map_1.png"
          }
        }, {
          "id": 4,
          "overlay": {
            "url": "images/overlays/ATMO_map_2.png"
          }
        }, {
          "id": 5,
          "overlay": {
            "url": "images/overlays/ATMO_map_1.png"
          }
        }, {
          "id": 6,
          "overlay": {
            "url": "images/overlays/ATMO_map_2.png"
          }
        }]
      }]
    }, {
      "id": 7,
      "datas": [{
        "year": 2018,
        "data": [{
            "id": 1,
            "title": "au total en occitanie en",
            "subtitle": "ont connu au moins un département en épisode pollution",
            "bubbles": [{
                "id": 1,
                "value": 13
              },
              {
                "id": 2,
                "value": 6
              }
            ]
          },
          {
            "rows": [{
              "label": "Aude",
              "columns": [0, 3]
            }, {
              "label": "Aveyron",
              "columns": [2, 0]
            }, {
              "label": "Gard",
              "columns": [7, 2]
            }, {
              "label": "Haute-garonne",
              "columns": [14, 1]
            }, {
              "label": "Haute-pyrénées",
              "columns": [17, 0]
            }, {
              "label": "Hérault",
              "columns": [2, 1]
            }]
          }
        ]
      },
    {
      "year": 2017,
      "data": [
        {
          "id": 1,
          "title": "au total en occitanie en",
          "subtitle": "ont connu au moins un département en épisode pollution",
          "bubbles": [
            {
              "id": 1,
              "value": 26
            },
            {
              "id": 2,
              "value": 4
            }
          ]
        },
        {
          "rows": [
            {
              "label": "Aude",
              "columns": [
                2,
                1
              ]
            },
            {
              "label": "Aveyron",
              "columns": [
                5,
                7
              ]
            },
            {
              "label": "Gard",
              "columns": [
                1,
                5
              ]
            },
            {
              "label": "Haute-garonne",
              "columns": [
                7,
                19
              ]
            },
            {
              "label": "Haute-pyrénées",
              "columns": [
                3,
                6
              ]
            },
            {
              "label": "Hérault",
              "columns": [
                2,
                1
              ]
            }
          ]
        }
      ]
    }]
    },
    {
      "id": 8,
      "datas": [{
          "year": 2018,
          "data": [{
              "id": 1,
              "number": 77
            },
            {
              "id": 2,
              "number": 20
            },
            {
              "id": 3,
              "number": 3
            }
          ]
        },
        {
          "year": 2017,
          "data": [{
              "id": 1,
              "number": 50
            },
            {
              "id": 2,
              "number": 30
            },
            {
              "id": 3,
              "number": 20
            }
          ]
        }
      ]
    }
  ]
}
